%YAML 1.1
%TAG !u! tag:unity3d.com,2011:
--- !u!1045 &1
EditorBuildSettings:
  m_ObjectHideFlags: 0
  serializedVersion: 2
  m_Scenes:
  - enabled: 1
    path: Assets/Scenes/Menu.unity
    guid: f1ae81d7e3769a241a6c4a251c8ef2bd
  - enabled: 1
    path: Assets/Scenes/Level 1 Red.unity
    guid: 9fc0d4010bbf28b4594072e72b8655ab
  - enabled: 1
    path: Assets/Scenes/Level 2 Green.unity
    guid: ac4d1d3211ab140469badbde5dadd498
  - enabled: 1
    path: Assets/Scenes/Win Screen.unity
    guid: cea662134660fbb41b1287669faa0b3c
  - enabled: 1
    path: Assets/Scenes/Game Over.unity
    guid: b709d90281dcf854ea2f15f8240c3ca8
  m_configObjects: {}
